{
    "rulesDirectory": [
        "node_modules/codelyzer"
    ],
    "rules": {
        "arrow-return-shorthand": true,
        "callable-types": true,
        "class-name": true,
        "comment-format": [
            true,
            "check-space"
        ],
        "no-duplicate-variable": true,
        "no-unused-variable": [
            true
        ]
    }
}
